London Restaurant Scene project- MIBE
…
19

Papa Johns

18

1.4 Average menu price and number of items for each restaurant

number_of_items_gross <- restaurants_info %>%
  filter(restaurant_id %>%
           map_lgl(any)) %>%
  unnest(rest_menu_item_price)
number_of_items_gross

## # A tibble: 703,861 x 7
##    restaurant_id rest_name rest_brand rest_postcode rest_neighborho~ rest_rating
##            <dbl> <chr>     <chr>      <chr>         <chr>                  <dbl>
##  1        191295 Baba Wal~ <NA>       NW97DY        Hendon                    NA
##  2        191295 Baba Wal~ <NA>       NW97DY        Hendon                    NA
##  3        191295 Baba Wal~ <NA>       NW97DY        Hendon                    NA
##  4        191295 Baba Wal~ <NA>       NW97DY        Hendon                    NA
##  5        191295 Baba Wal~ <NA>       NW97DY        Hendon                    NA
##  6        191295 Baba Wal~ <NA>       NW97DY        Hendon                    NA
##  7        191295 Baba Wal~ <NA>       NW97DY        Hendon                    NA
##  8        191295 Baba Wal~ <NA>       NW97DY        Hendon                    NA
##  9        191295 Baba Wal~ <NA>       NW97DY        Hendon                    NA
## 10        191295 Baba Wal~ <NA>       NW97DY        Hendon                    NA
## # ... with 703,851 more rows, and 1 more variable: rest_menu_item_price <dbl>

number_of_items_net <- number_of_items_gross[apply(number_of_items_gross[c(7)],1, function(del) any(!del==0)),]
number_of_items_net

## # A tibble: 581,092 x 7
##    restaurant_id rest_name rest_brand rest_postcode rest_neighborho~ rest_rating
##            <dbl> <chr>     <chr>      <chr>         <chr>                  <dbl>
##  1        191295 Baba Wal~ <NA>       NW97DY        Hendon                    NA
##  2        191295 Baba Wal~ <NA>       NW97DY        Hendon                    NA
##  3        191295 Baba Wal~ <NA>       NW97DY        Hendon                    NA
##  4        191295 Baba Wal~ <NA>       NW97DY        Hendon                    NA
##  5        191295 Baba Wal~ <NA>       NW97DY        Hendon                    NA
##  6        191295 Baba Wal~ <NA>       NW97DY        Hendon                    NA
##  7        191295 Baba Wal~ <NA>       NW97DY        Hendon                    NA
##  8        191295 Baba Wal~ <NA>       NW97DY        Hendon                    NA
##  9        191295 Baba Wal~ <NA>       NW97DY        Hendon                    NA
## 10        191295 Baba Wal~ <NA>       NW97DY        Hendon                    NA
## # ... with 581,082 more rows, and 1 more variable: rest_menu_item_price <dbl>

num_of_items <- number_of_items_net %>%
  group_by(rest_name) %>%
  summarise(num_items_menu = n()) %>%
  arrange(-num_items_menu)
num_of_items

## # A tibble: 4,522 x 2
##    rest_name             num_items_menu
##    <chr>                          <int>
##  1 PizzaExpress                    8802
##  2 KFC                             5492
##  3 Papa John's                     4914
##  4 Pizza Hut Delivery              3903
##  5 Pret A Manger                   3405
##  6 BP                              3379
##  7 Tops Pizza                      2804
##  8 itsu                            2389
##  9 Wagamama                        2109
## 10 Pizza Hut Restaurants           2072
## # ... with 4,512 more rows

avg_price <- number_of_items_net %>%
  group_by(restaurant_id, rest_name) %>%
  filter(!is.na(restaurant_id)) %>%
  summarise_at(vars(rest_menu_item_price), list(~mean(.)), na.rm = TRUE)

colnames(avg_price)[3] <- "Avg_price"

avg_price$Avg_price <- sprintf(avg_price$Avg_price, fmt="%#.4f")

avg_price

## # A tibble: 5,772 x 3
## # Groups:   restaurant_id [5,772]
##    restaurant_id rest_name                                             Avg_price
##            <dbl> <chr>                                                 <chr>    
##  1             3 "Busaba Chelsea"                                      9.8087   
##  2             5 "Rossopomodoro"                                       11.2719  
##  3             8 "New Culture Revolution"                              8.8381   
##  4            10 "Mandaloun"                                           9.7169   
##  5            15 "Busaba St Christopher's Place"                       9.6062   
##  6            16 "Busaba Bloomsbury"                                   9.4978   
##  7            18 "\U0001f1ef\U0001f1f5\U0001f1e7\U0001f1f7 YOOBI \U00~ 8.3522   
##  8            19 "Noura"                                               58.8348  
##  9            20 "Dozo Sushi"                                          10.9386  
## 10            21 "Levant"                                              13.1274  
## # ... with 5,762 more rows
…
2.3 Average delivery time per restaurant

avg_del_time <- complete_rest_data %>%
  group_by(restaurant_id, rest_name, rest_postcode, rest_rating) %>%
  summarise(avg_time = mean(rest_delivery_time_min, na.rm = TRUE))

## `summarise()` has grouped output by 'restaurant_id', 'rest_name', 'rest_postcode'. You can override using the `.groups` argument.

avg_del_time

## # A tibble: 4,240 x 5
## # Groups:   restaurant_id, rest_name, rest_postcode [4,240]
##    restaurant_id rest_name                    rest_postcode rest_rating avg_time
##            <dbl> <chr>                        <chr>               <dbl>    <dbl>
##  1             3 "Busaba Chelsea"             SW35UZ                4.6     19.6
##  2             5 "Rossopomodoro"              SW109NB               4.5     17.1
##  3             8 "New Culture Revolution"     SW35EP                4.7     18.3
##  4            10 "Mandaloun"                  SW109TW               4.8     18.6
##  5            15 "Busaba St Christopher's Pl~ W1U1BU                4.7     21.8
##  6            16 "Busaba Bloomsbury"          WC1E7DF               4.7     22.4
##  7            18 "\U0001f1ef\U0001f1f5\U0001~ W1F0LL                4.8     20.6
##  8            19 "Noura"                      W1J5HP                4.7     23.7
##  9            20 "Dozo Sushi"                 W1D4TP                4.8     62.2
## 10            21 "Levant"                     W1U2SJ                4.8     21.8
## # ... with 4,230 more rows
…
4.8

W1D4TP

3 Open Analysis

By looking at this data one question comes to my mind almost immediately. Are restaurants located in those neighborhoods that are served by the highest number of delivery places?

I start by creating a new data frame that contains the data all the data from the restaurants and their deliveries, but only for the top 10 neighborhoods for number of restaurants.

complete_data_fortified <- inner_join(complete_rest_data, top10_neighborhoods, by = "rest_neighborhood")
complete_data_fortified

## # A tibble: 31,978 x 10
##    restaurant_id neighborhood_name rest_delivery_tim~ rest_name      rest_brand 
##            <dbl> <chr>                          <dbl> <chr>          <chr>      
##  1         98636 the-city                          10 Farmer J - Ki~ Farmer J   
##  2         22555 the-city                          15 Polo           Polo       
##  3        108441 the-city                          10 Subway         Subway     
##  4        126532 the-city                          10 Doughnut Time  <NA>       
##  5         40178 the-city                          10 Le Pain Quoti~ Le Pain Qu~
##  6         65537 the-city                          15 People's Choi~ <NA>       
##  7         34430 the-city                          10 Pure - Breakf~ Pure       
##  8        205253 the-city                          15 Original Bage~ <NA>       
##  9         69042 the-city                          15 Yummy Bagels   <NA>       
## 10         78979 the-city                          10 Nisa           Nisa       
## # ... with 31,968 more rows, and 5 more variables: rest_postcode <chr>,
## #   rest_neighborhood <chr>, rest_rating <dbl>, rest_menu_item_price <list>,
## #   number_of_rest <dbl>

I now want to calculate how many restaurants deliver to a neighborhood and where they are from.

new_ranking <- complete_data_fortified %>%
  group_by(neighborhood_name, rest_neighborhood) %>%
  summarise(how_many_to_and_from = n()) %>%
  arrange(-how_many_to_and_from) %>%
  slice(1:15)

## `summarise()` has grouped output by 'neighborhood_name'. You can override using the `.groups` argument.

new_ranking

## # A tibble: 310 x 3
## # Groups:   neighborhood_name [188]
##    neighborhood_name rest_neighborhood how_many_to_and_from
##    <chr>             <chr>                            <int>
##  1 acton             Ealing                             170
##  2 aldgate           The City                           186
##  3 aldgate           Canary Wharf                         7
##  4 anerley           Croydon                             10
##  5 anerley           Tooting                              2
##  6 angel             The City                             1
##  7 balham            Tooting                            103
##  8 balham            Wimbledon                            2
##  9 bank              The City                           201
## 10 bankside          The City                             1
## # ... with 300 more rows

I now want to join together the previous set with how many restaurants deliver to each neighborhood (just the 15 neighborhoods with the highest number of restaurants that deliver there)

who_delivers <- inner_join(new_ranking, deliveries_by)

## Joining, by = "neighborhood_name"

who_delivers

## # A tibble: 40 x 4
## # Groups:   neighborhood_name [15]
##    neighborhood_name rest_neighborhood how_many_to_and_from how_many_deliver
##    <chr>             <chr>                            <int>            <int>
##  1 berners-street    Soho                               544             2128
##  2 berners-street    Marylebone                         443             2128
##  3 berners-street    The City                             2             2128
##  4 bloomsbury        Soho                               506             1802
##  5 bloomsbury        Marylebone                         168             1802
##  6 bloomsbury        The City                            19             1802
##  7 charlotte-street  Soho                               551             2133
##  8 charlotte-street  Marylebone                         421             2133
##  9 charlotte-street  The City                             2             2133
## 10 covent-garden     Soho                               526             1799
## # ... with 30 more rows

At this point I am interested in knowing just the number of restaurants that deliver to each neighborhood and from which neighborhood they are.

from_where <- who_delivers %>%
  subset(select = c("neighborhood_name", "rest_neighborhood", "how_many_to_and_from"))
from_where

## # A tibble: 40 x 3
## # Groups:   neighborhood_name [15]
##    neighborhood_name rest_neighborhood how_many_to_and_from
##    <chr>             <chr>                            <int>
##  1 berners-street    Soho                               544
##  2 berners-street    Marylebone                         443
##  3 berners-street    The City                             2
##  4 bloomsbury        Soho                               506
##  5 bloomsbury        Marylebone                         168
##  6 bloomsbury        The City                            19
##  7 charlotte-street  Soho                               551
##  8 charlotte-street  Marylebone                         421
##  9 charlotte-street  The City                             2
## 10 covent-garden     Soho                               526
## # ... with 30 more rows

how_many <- who_delivers %>%
  subset(select = c("neighborhood_name", "rest_neighborhood", "how_many_deliver"))
how_many

## # A tibble: 40 x 3
## # Groups:   neighborhood_name [15]
##    neighborhood_name rest_neighborhood how_many_deliver
##    <chr>             <chr>                        <int>
##  1 berners-street    Soho                          2128
##  2 berners-street    Marylebone                    2128
##  3 berners-street    The City                      2128
##  4 bloomsbury        Soho                          1802
##  5 bloomsbury        Marylebone                    1802
##  6 bloomsbury        The City                      1802
##  7 charlotte-street  Soho                          2133
##  8 charlotte-street  Marylebone                    2133
##  9 charlotte-street  The City                      2133
## 10 covent-garden     Soho                          1799
## # ... with 30 more rows
…
